Week 3
…
The purpose of this lecture is not to tell you what is aesthetically best but rather to teach you how to control the aesthetics of the plots you are making to suit your own circumstances.

There are vast resources available for you to learn more on this subject. Google is your best reference.

Plot framework

The program we use for plotting most data in R is ggplot2. You start with ggplot by providing data and mapping dimensions of your data to aesthetics. This generates a “framework” for your plot to which you add layers. Each layer adds or changes the visual output of the plot.

In this context, one aesthetic is used to describe one dimension of your data. Common aesthetics include x and y which represent the position in space on a plot. Others include color, fill, size, shape, alpha (transparency) and label (a text label), all of which can be used to describe dimensions of your data.

As a simple example:

# example data
as_tibble(iris)
#> # A tibble: 150 × 5
#>    Sepal.Length Sepal.Width Petal.Length Petal.Width Species
#>           <dbl>       <dbl>        <dbl>       <dbl> <fct>  
#>  1          5.1         3.5          1.4         0.2 setosa 
#>  2          4.9         3            1.4         0.2 setosa 
#>  3          4.7         3.2          1.3         0.2 setosa 
#>  4          4.6         3.1          1.5         0.2 setosa 
#>  5          5           3.6          1.4         0.2 setosa 
#>  6          5.4         3.9          1.7         0.4 setosa 
#>  7          4.6         3.4          1.4         0.3 setosa 
#>  8          5           3.4          1.5         0.2 setosa 
#>  9          4.4         2.9          1.4         0.2 setosa 
#> 10          4.9         3.1          1.5         0.1 setosa 
#> # … with 140 more rows
…
