Week 2: R Fundamentals • datascience.curriculum
…
Data should exist as a fixed, unchanging file on your hard drive. You
want to read it into R using readr::read_csv(). This is a
tidyverse command that reads the file, automatically infers data types,
and formats the data as a “tibble”. A tibble is related to the dataframe
from base R but has superior characteristics for almost everything we
do. Think of it as a programmatic representation of your csv file within
R.

# attach the packages we will need
library("tidyverse")
# read in an example data file
# or substitute a file path to your own data
readr::read_csv(file = "https://raw.githubusercontent.com/blaserlab/datascience.curriculum/main/inst/extdata/demo_iris_data.csv")
#> # A tibble: 150 × 6
#>    observation Sepal.Length Sepal.Width Petal.Length Petal.Width Species
#>          <dbl>        <dbl>       <dbl>        <dbl>       <dbl> <chr>  
#>  1           1          5.1         3.5          1.4         0.2 setosa 
#>  2           2          4.9         3            1.4         0.2 setosa 
#>  3           3          4.7         3.2          1.3         0.2 setosa 
#>  4           4          4.6         3.1          1.5         0.2 setosa 
#>  5           5          5           3.6          1.4         0.2 setosa 
#>  6           6          5.4         3.9          1.7         0.4 setosa 
#>  7           7          4.6         3.4          1.4         0.3 setosa 
#>  8           8          5           3.4          1.5         0.2 setosa 
#>  9           9          4.4         2.9          1.4         0.2 setosa 
#> 10          10          4.9         3.1          1.5         0.1 setosa 
#> # … with 140 more rows
…
When read into R, the read_csv command infers the data types from the
values provided and provides a message for you explaining what it has
done. In this case, they are all correct except for observation. Why?
Because it has interpreted observation as “dbl” which is another way of
saying “numeric” which in this case is not really correct. Observation
is just a serial number of the observations which in this case have an
inherent order but not a quantitative value. So we can tell R to
interpret this as a factor which is the R data type for ordered
data.

readr::read_csv(file = "https://raw.githubusercontent.com/blaserlab/datascience.curriculum/main/inst/extdata/demo_iris_data.csv", col_types = "fddddc")
#> # A tibble: 150 × 6
#>    observation Sepal.Length Sepal.Width Petal.Length Petal.Width Species
#>    <fct>              <dbl>       <dbl>        <dbl>       <dbl> <chr>  
#>  1 1                    5.1         3.5          1.4         0.2 setosa 
#>  2 2                    4.9         3            1.4         0.2 setosa 
#>  3 3                    4.7         3.2          1.3         0.2 setosa 
#>  4 4                    4.6         3.1          1.5         0.2 setosa 
#>  5 5                    5           3.6          1.4         0.2 setosa 
#>  6 6                    5.4         3.9          1.7         0.4 setosa 
#>  7 7                    4.6         3.4          1.4         0.3 setosa 
#>  8 8                    5           3.4          1.5         0.2 setosa 
#>  9 9                    4.4         2.9          1.4         0.2 setosa 
#> 10 10                   4.9         3.1          1.5         0.1 setosa 
#> # … with 140 more rows
…
factor: factors are essentially characters bound to integer values.
The character part is called a “level”. Factors can be a little tricky
but are useful for ordering and reordering categorical data.

Variable assignment

An important advantage of using a programming language to analyze
data is the concept of abstraction, or assigning complicated values to
simple variable names.

# assign the data to the variable, demo_data
# readr::read_csv(file = system.file("extdata/demo_iris_data.csv", package = "datascience.curriculum"))
demo_data <- readr::read_csv(file = "https://raw.githubusercontent.com/blaserlab/datascience.curriculum/main/inst/extdata/demo_iris_data.csv", col_types = "fddddc")
demo_data
#> # A tibble: 150 × 6
#>    observation Sepal.Length Sepal.Width Petal.Length Petal.Width Species
#>    <fct>              <dbl>       <dbl>        <dbl>       <dbl> <chr>  
#>  1 1                    5.1         3.5          1.4         0.2 setosa 
#>  2 2                    4.9         3            1.4         0.2 setosa 
#>  3 3                    4.7         3.2          1.3         0.2 setosa 
#>  4 4                    4.6         3.1          1.5         0.2 setosa 
#>  5 5                    5           3.6          1.4         0.2 setosa 
#>  6 6                    5.4         3.9          1.7         0.4 setosa 
#>  7 7                    4.6         3.4          1.4         0.3 setosa 
#>  8 8                    5           3.4          1.5         0.2 setosa 
#>  9 9                    4.4         2.9          1.4         0.2 setosa 
#> 10 10                   4.9         3.1          1.5         0.1 setosa 
#> # … with 140 more rows
…
Lists are very flexible and useful objects for holding your data.

Subsetting with base R functions

I think this syntax is suboptimal compared to Dplyr syntax, but for
some advanced data objects you need to know it.

For subsetting you use a single bracket rather than the double
bracket for extracting data. This returns an object of the same class,
only smaller.

# subset using dataframe[row,colum] syntax
# subset a dataframe to get the second and third columns only
demo_data[,2:3]
#> # A tibble: 150 × 2
#>    Sepal.Length Sepal.Width
#>           <dbl>       <dbl>
#>  1          5.1         3.5
#>  2          4.9         3  
#>  3          4.7         3.2
#>  4          4.6         3.1
#>  5          5           3.6
#>  6          5.4         3.9
#>  7          4.6         3.4
#>  8          5           3.4
#>  9          4.4         2.9
#> 10          4.9         3.1
#> # … with 140 more rows

# subset a dataframe to get the first and second rows only
demo_data[1:2,]
#> # A tibble: 2 × 6
#>   observation Sepal.Length Sepal.Width Petal.Length Petal.Width Species
#>   <fct>              <dbl>       <dbl>        <dbl>       <dbl> <chr>  
#> 1 1                    5.1         3.5          1.4         0.2 setosa 
#> 2 2                    4.9         3            1.4         0.2 setosa

# subset to include columns by name 
demo_data[c("Species", "observation")]
#> # A tibble: 150 × 2
#>    Species observation
#>    <chr>   <fct>      
#>  1 setosa  1          
#>  2 setosa  2          
#>  3 setosa  3          
#>  4 setosa  4          
#>  5 setosa  5          
#>  6 setosa  6          
#>  7 setosa  7          
#>  8 setosa  8          
#>  9 setosa  9          
#> 10 setosa  10         
#> # … with 140 more rows
…
You can use any built-in or custom function in mutate or summarise.
Functions for mutate must return a vector of the same length as the
input vector; functions for summarise must return a vector of length
1.

Sometimes you may find it useful to select or de-select columns from
a tibble:

# return a tibble without the observation column
demo_data |>
  select(-observation)
#> # A tibble: 150 × 5
#>    Sepal.Length Sepal.Width Petal.Length Petal.Width Species
#>           <dbl>       <dbl>        <dbl>       <dbl> <chr>  
#>  1          5.1         3.5          1.4         0.2 setosa 
#>  2          4.9         3            1.4         0.2 setosa 
#>  3          4.7         3.2          1.3         0.2 setosa 
#>  4          4.6         3.1          1.5         0.2 setosa 
#>  5          5           3.6          1.4         0.2 setosa 
#>  6          5.4         3.9          1.7         0.4 setosa 
#>  7          4.6         3.4          1.4         0.3 setosa 
#>  8          5           3.4          1.5         0.2 setosa 
#>  9          4.4         2.9          1.4         0.2 setosa 
#> 10          4.9         3.1          1.5         0.1 setosa 
#> # … with 140 more rows
# return a tibble with only the Species and Sepal.Length columns
demo_data |>
  select(c(Species, Sepal.Length))
#> # A tibble: 150 × 2
#>    Species Sepal.Length
#>    <chr>          <dbl>
#>  1 setosa           5.1
#>  2 setosa           4.9
#>  3 setosa           4.7
#>  4 setosa           4.6
#>  5 setosa           5  
#>  6 setosa           5.4
#>  7 setosa           4.6
#>  8 setosa           5  
#>  9 setosa           4.4
#> 10 setosa           4.9
#> # … with 140 more rows

Use filter to select rows based on conditional
test(s):

# filter rows satisfying a logical test
demo_data |>
  filter(Species == "setosa")
#> # A tibble: 50 × 6
#>    observation Sepal.Length Sepal.Width Petal.Length Petal.Width Species
#>    <fct>              <dbl>       <dbl>        <dbl>       <dbl> <chr>  
#>  1 1                    5.1         3.5          1.4         0.2 setosa 
#>  2 2                    4.9         3            1.4         0.2 setosa 
#>  3 3                    4.7         3.2          1.3         0.2 setosa 
#>  4 4                    4.6         3.1          1.5         0.2 setosa 
#>  5 5                    5           3.6          1.4         0.2 setosa 
#>  6 6                    5.4         3.9          1.7         0.4 setosa 
#>  7 7                    4.6         3.4          1.4         0.3 setosa 
#>  8 8                    5           3.4          1.5         0.2 setosa 
#>  9 9                    4.4         2.9          1.4         0.2 setosa 
#> 10 10                   4.9         3.1          1.5         0.1 setosa 
#> # … with 40 more rows

demo_data |>
  filter(Species %in% c("setosa", "versicolor"))
#> # A tibble: 100 × 6
#>    observation Sepal.Length Sepal.Width Petal.Length Petal.Width Species
#>    <fct>              <dbl>       <dbl>        <dbl>       <dbl> <chr>  
#>  1 1                    5.1         3.5          1.4         0.2 setosa 
#>  2 2                    4.9         3            1.4         0.2 setosa 
#>  3 3                    4.7         3.2          1.3         0.2 setosa 
#>  4 4                    4.6         3.1          1.5         0.2 setosa 
#>  5 5                    5           3.6          1.4         0.2 setosa 
#>  6 6                    5.4         3.9          1.7         0.4 setosa 
#>  7 7                    4.6         3.4          1.4         0.3 setosa 
#>  8 8                    5           3.4          1.5         0.2 setosa 
#>  9 9                    4.4         2.9          1.4         0.2 setosa 
#> 10 10                   4.9         3.1          1.5         0.1 setosa 
#> # … with 90 more rows

In some cases it may be useful to have the data in “long form” as
opposed to “wide form”. Here you use pivot_longer and you
are going to tell R which columns to convert to long form. These should
all be of the same type because they will end up in the same column. The
selected column names get repeated in a “name” column and the values end
up in a “value” column. The columns you don’t select will be retained as
additional attributes for the values.

# pivot from wide form to long form
long_data <- demo_data |>
  pivot_longer(cols = c(Sepal.Length,  Sepal.Width, Petal.Length, Petal.Width))
long_data
#> # A tibble: 600 × 4
#>    observation Species name         value
#>    <fct>       <chr>   <chr>        <dbl>
#>  1 1           setosa  Sepal.Length   5.1
#>  2 1           setosa  Sepal.Width    3.5
#>  3 1           setosa  Petal.Length   1.4
#>  4 1           setosa  Petal.Width    0.2
#>  5 2           setosa  Sepal.Length   4.9
#>  6 2           setosa  Sepal.Width    3  
#>  7 2           setosa  Petal.Length   1.4
#>  8 2           setosa  Petal.Width    0.2
#>  9 3           setosa  Sepal.Length   4.7
#> 10 3           setosa  Sepal.Width    3.2
#> # … with 590 more rows

# pivot back to wide form
long_data |>
  pivot_wider(names_from = "name", values_from = "value")
#> # A tibble: 150 × 6
#>    observation Species Sepal.Length Sepal.Width Petal.Length Petal.Width
#>    <fct>       <chr>          <dbl>       <dbl>        <dbl>       <dbl>
#>  1 1           setosa           5.1         3.5          1.4         0.2
#>  2 2           setosa           4.9         3            1.4         0.2
#>  3 3           setosa           4.7         3.2          1.3         0.2
#>  4 4           setosa           4.6         3.1          1.5         0.2
#>  5 5           setosa           5           3.6          1.4         0.2
#>  6 6           setosa           5.4         3.9          1.7         0.4
#>  7 7           setosa           4.6         3.4          1.4         0.3
#>  8 8           setosa           5           3.4          1.5         0.2
#>  9 9           setosa           4.4         2.9          1.4         0.2
#> 10 10          setosa           4.9         3.1          1.5         0.1
#> # … with 140 more rows
…
